{
  "name": "my_app_name",
  "version": "0.0.0",
  "qaRelease": 0,
  "description": "Describe this app",
  "author": "Your name here",
  "contributors": [],
  "devDependencies": {
    "babel-preset-env": "^1.6.1",
    "babel-register": "^6.22.0",
    "browser-sync": "^2.23.6",
    "del": "^3.0.0",
    "gulp": "^3.9.1",
    "gulp-autoprefixer": "^4.1.0",
    "gulp-babel": "^7.0.1",
    "gulp-cache": "^1.0.2",
    "gulp-imagemin": "^4.1.0",
    "gulp-tap": "^1.0.1",
    "gulp-git": "^2.5.1",
	"run-sequence": "^2.2.1",
    "gulp-uglify": "^3.0.0",
    "gulp-htmlmin": "^4.0.0",
    "gulp-cssnano": "^2.1.2",
    "gulp-if": "^2.0.2",
    "gulp-inject": "^4.2.0",
    "gulp-notify": "^3.0.0",
    "gulp-preprocess": "^2.0.0",
    "gulp-remote-src": "^0.4.2",
    "gulp-rename": "^1.2.2",
    "gulp-replace": "^0.6.1",
    "gulp-sass": "^3.1.0",
    "gulp-useref": "^3.1.2",
    "gulp-zip": "^4.0.0",
    "node-env-file": "^0.1.8",
    "gulp-awspublish": "^3.3.1"
  },
    "dependencies": {
    "@comJS_components/comJS": "https://smlamont@bitbucket.org/smlamont/comjs.git"
  },
  "engines": {
    "yarn": ">= 1.0.0"
  },
  "scripts_zz": {
    "postinstall": "node -e \"try { require('fs').symlinkSync(require('path').resolve('node_modules/@comJS_components'), 'comJS_components', 'junction') } catch (e) { }\""
  },
  "comJSConfig": {
    "isEmbedded": 1,
    "includeFormValidation": false,
    "includeEditableSelect": false,
    "includeIntlTelInput": false,
    "includeJQueryMaskedInput": false,
    "includePlaceholders": false,
    "includeMultiSelect": false,
    "includeOMS": false,
    "includeFullCalendar": false,
    "includeDatePicker": false,
    "includeRangePicker": false,
    "includeMoment": false,
    "includeModeling": false,
    "includeBootbox": false,
    "includeDropzone": false,
    "includeModal" : false,
    "includeTerms": false,
	"awsRegion" : "ca-central-1",
	"awsBucket-dev" : "dev-com-resources",
	"awsBucket-qa" : "qa-com-resources",	
	"awsBucket-prod" : "prod-com-resources",
	"awsDeployPath" : "resources/my_app_name/"		
  }
}
